verbatimtex
\font\rm=csr8
\rm
etex

prologues:=3;

%mode_setup;
u:=.11pt;
picture p[];

sqroot2divby2=sqrt(3)/2;
def sipka(expr a, b, c, d) =
draw (a,b)--(c,d);
i:=(c-a)/7;
j:=(d-b)/7;
%norma:=sqrt(i*i+j*j)/50;
norma:=2;
m:=i/norma;
n:=j/norma;
rotcr:=sqroot2divby2*m+n/2;
rotdr:=-m/2+sqroot2divby2*n;
rotcl:=sqroot2divby2*m-n/2;
rotdl:=m/2+sqroot2divby2*n;
draw (c-rotcl,d-rotdl)--(c,d)--(c-rotcr,d-rotdr)
enddef;

def nato(expr px,py,qx,qy) =
pickup pencircle scaled 0.1pt;
bvecx:=qx-px;
bvecy:=qy-py;
rx:=px+bvecy;
cy:=py-bvecx;
dx:=px-bvecy;
dy:=py+bvecx;
ex:=px-bvecx;
ey:=py-bvecy;
draw((ex,ey)--(qx,qy));
draw((rx,cy)--(dx,dy));
fx:=(bvecx+dx-px)/5+px;
fy:=(bvecy+dy-py)/5+py;
gx:=(dx-bvecx-px)/5+px;
gy:=(dy-bvecy-py)/5+py;
hx:=(rx-bvecx-px)/5+px;
hy:=(cy-bvecy-py)/5+py;
ix:=(rx+bvecx-px)/5+px;
iy:=(cy+bvecy-py)/5+py;
draw((qx,qy)--(fx,fy)--(dx,dy)--(gx,gy)--(ex,ey)--(hx,hy)--(rx,cy)--(ix,iy)--cycle);
draw((fx,fy)--(hx,hy));
draw((gx,gy)--(ix,iy));
ivecx:=(ix-px)/14;
ivecy:=(iy-py)/14;
pickup pencircle scaled 0.2pt;
for i=1,2,3,4,5,6,7,8,9,10,11,12,13: draw((px+i*ivecx,py+i*ivecy)--(qx,qy)); draw((px-i*ivecx,py-i*ivecy)--(ex,ey)); endfor;
pickup pencircle scaled 1pt;
enddef;

ax=0;
ay=0;
by=9u;
bx=6u;
cx:=3*bx;
beginfig(1);
pickup pencircle scaled 1pt;
"mapa Karlova";
draw (ax+bx*0,ay+by*90)--(ax+bx*0,ay+by*70)--(ax+bx*45,ay+by*70)--(ax+bx*45,ay+by*90)--cycle; % Ke Karlovu 3
label(btex 3 etex, (ax+bx*22.5, ay+by*80));
sipka(ax+bx*55,ay+by*80,ax+bx*55,ay+by*100);
draw (ax+bx*65,ay+by*90)--(ax+bx*65,ay+by*70)--(ax+bx*110,ay+by*70)--(ax+bx*110,ay+by*90)--cycle; % Ke Karlovu 5
label(btex 5 etex, (ax+bx*87.5, ay+by*80));
draw (ax+bx*45,ay+by*90)--(ax+bx*45,ay+by*102)--(ax+bx*65,ay+by*102)--(ax+bx*65,ay+by*90)--cycle; %Zaklad schodiste...
draw (ax+bx*45,ay+by*94)--(ax+bx*65,ay+by*94);
draw (ax+bx*45,ay+by*98)--(ax+bx*65,ay+by*98);
label.top(btex (d) etex, (ax+bx*55, ay+by*102));

draw (ax+bx*110,ay+by*70)--(ax+bx*216,ay+by*70)--(ax+bx*216,ay+by*100);
% Od KK5 kdovikam
draw (ax+bx*230,ay+by*100)--(ax+bx*230,ay+by*70)--(ax+bx*380,ay+by*70);
% Od kdovikam doprava do konce.
sipka(ax+bx*330,ay+by*63,ax+bx*382,ay+by*63);
label.rt(btex (c) etex, (ax+bx*382,ay+by*63));
label(btex Ke Karlovu etex,(ax+bx*190,ay+by*63));

draw (ax+bx*0,ay+by*55)--(ax+bx*166,ay+by*55)--(ax+bx*166,ay+by*0);
% Odprava k Wenzigovej
label.lft((btex Wenzigova etex) rotated 90, (ax+bx*166,ay+by*27.5));
sipka(ax+bx*173,ay+by*30,ax+bx*173,ay+by*0);
label.bot(btex (a) etex, (ax+bx*173,ay+by*0));
draw (ax+bx*180,ay+by*0)--(ax+bx*180,ay+by*55)--(ax+bx*260,ay+by*55)--(ax+bx*350,ay+by*0);
% Od Wenzigovej k Bojisti
uhel:=angle(-(ax+bx*260,ay+by*55)+(ax+bx*350,ay+by*0));
p2:=btex Na Boji\v sti etex;
p3:=p2 rotated uhel;
label(p3, (ax+bx*300, ay+by*22.5));
%draw(320,40)--(350,50);
draw (ax+bx*355,ay+by*10)--(ax+bx*280,ay+by*55)--(ax+bx*380,ay+by*55);
% Od Bojiste smer Stepanska
sipka(ax+bx*323,ay+by*23,ax+bx*356,ay+by*3);
label.lrt(btex (b) etex, (ax+bx*356,ay+by*3));
draw (ax+bx*348,ay+by*18)--(ax+bx*318,ay+by*35)--(ax+bx*338,ay+by*43)--(ax+bx*368,ay+by*26)--cycle;
% DPMP
label((btex DPMP etex) rotated uhel, (ax+bx*343, ay+by*30));
nato(ax+bx*50,ay+by*30,ax+bx*75,ay+by*27);
% Divne, moc divne... Jsme overlimit a nikomu to nevadi...
label.rt(btex $N$ etex, (ax+bx*75,ay+by*27));
endfig;

by:=8u;
cx:=16u;
beginfig(2);
pickup pencircle scaled 1pt;
"mapa Hostivare";
draw (ax+cx*0,ay+by*0)--(ax+cx*110,ay+by*0);
%Dedy Mraze, dolni cast
label.bot(btex o etex, (ax+cx*100,ay+by*0));
draw (ax+cx*0,ay+by*20)--(ax+cx*65,ay+by*20)--(ax+cx*65,ay+by*80)--(ax+cx*0,ay+by*80);
%leva cast horniho segmentu Dedy Mraze
label(btex Plukovn\'\i ka Mr\'aze etex, (ax+cx*45,ay+by*10));
draw (ax+cx*110,ay+by*20)--(ax+cx*75,ay+by*20)--(ax+cx*75,ay+by*80)--(ax+cx*110,ay+by*80);
p0=btex Gercenova etex;
p1=p0 rotated 90;
label(p1, (ax+cx*70, ay+by*50));
draw (ax+cx*0,ay+by*100)--(ax+cx*110,ay+by*100);
% horni cast Bruslarsky
label(btex Brusla\v rsk\'a etex,(ax+cx*50,ay+by*90));
draw (ax+cx*20,ay+by*100)--(ax+cx*20,ay+by*170)--(ax+cx*100,ay+by*170)--(ax+cx*100,ay+by*100)--cycle;
draw (ax+cx*35,ay+by*100)--(ax+cx*35,ay+by*120)--(ax+cx*41,ay+by*120)--(ax+cx*41,ay+by*100)--cycle;
label(btex SCUK etex, (ax+cx*38, ay+by*130));
draw (ax+cx*80,ay+by*28)--(ax+cx*105,ay+by*28)--(ax+cx*105,ay+by*45)--(ax+cx*80,ay+by*45)--cycle;
%Nakupni stredisko
label(btex N\'ak. cen. etex, (ax+cx*92.5, ay+by*36.5));
label(btex o etex, (ax+cx*85,ay+by*24));
sipka (ax+cx*38,ay+by*90,ax+cx*38,ay+by*115);
nato(ax+cx*15,ay+by*45,ax+cx*20,ay+by*42);
label.lft(btex $N$ etex, (ax+cx*10,ay+by*48));
endfig;
end.
endinput;
